<?xml version="1.0" encoding="UTF-8" standalone="no"?>
<!-- Created with Inkscape (http://www.inkscape.org/) -->

<svg
   xmlns:dc="http://purl.org/dc/elements/1.1/"
   xmlns:cc="http://creativecommons.org/ns#"
   xmlns:rdf="http://www.w3.org/1999/02/22-rdf-syntax-ns#"
   xmlns:svg="http://www.w3.org/2000/svg"
   xmlns="http://www.w3.org/2000/svg"
   xmlns:xlink="http://www.w3.org/1999/xlink"
   xmlns:sodipodi="http://sodipodi.sourceforge.net/DTD/sodipodi-0.dtd"
   xmlns:inkscape="http://www.inkscape.org/namespaces/inkscape"
   id="svg9047"
   sodipodi:version="0.32"
   inkscape:version="0.92.3 (2405546, 2018-03-11)"
   width="800"
   height="230"
   version="1.0"
   sodipodi:docname="logo.svg"
   inkscape:output_extension="org.inkscape.output.svg.inkscape"
   inkscape:export-filename="/home/ariel/Desktop/logo.png"
   inkscape:export-xdpi="96"
   inkscape:export-ydpi="96">
  <metadata
     id="metadata9052">
    <rdf:RDF>
      <cc:Work
         rdf:about="">
        <dc:format>image/svg+xml</dc:format>
        <dc:type
           rdf:resource="http://purl.org/dc/dcmitype/StillImage" />
        <dc:title>Ferrocarriles Argentinos</dc:title>
        <dc:date>09 sep 2007</dc:date>
        <dc:creator>
          <cc:Agent>
            <dc:title>Fajro</dc:title>
          </cc:Agent>
        </dc:creator>
        <dc:description>Logo de Ferrocarriles Argentinos. Dedicado a Galio. :P</dc:description>
        <cc:license
           rdf:resource="http://web.resource.org/cc/PublicDomain" />
        <dc:subject>
          <rdf:Bag>
            <rdf:li>Ferrocarriles</rdf:li>
            <rdf:li>Argentinos</rdf:li>
            <rdf:li>Argentina</rdf:li>
          </rdf:Bag>
        </dc:subject>
        <dc:language>es</dc:language>
        <dc:source>http://commons.wikimedia.org/wiki/Image:Logo_fa.png</dc:source>
        <dc:publisher>
          <cc:Agent>
            <dc:title>Wikimedia Commons</dc:title>
          </cc:Agent>
        </dc:publisher>
        <dc:relation>http://upload.wikimedia.org/wikipedia/commons/b/b0/Logo_fa.png</dc:relation>
      </cc:Work>
      <cc:License
         rdf:about="http://web.resource.org/cc/PublicDomain">
        <cc:permits
           rdf:resource="http://web.resource.org/cc/Reproduction" />
        <cc:permits
           rdf:resource="http://web.resource.org/cc/Distribution" />
        <cc:permits
           rdf:resource="http://web.resource.org/cc/DerivativeWorks" />
      </cc:License>
    </rdf:RDF>
  </metadata>
  <defs
     id="defs9050">
    <linearGradient
       inkscape:collect="always"
       id="linearGradient1387">
      <stop
         style="stop-color:#505050;stop-opacity:1"
         offset="0"
         id="stop1383" />
      <stop
         style="stop-color:#787878;stop-opacity:1"
         offset="1"
         id="stop1385" />
    </linearGradient>
    <linearGradient
       inkscape:collect="always"
       id="linearGradient5549">
      <stop
         style="stop-color:#f2edd0;stop-opacity:1"
         offset="0"
         id="stop5545" />
      <stop
         style="stop-color:#d4d474;stop-opacity:1"
         offset="1"
         id="stop5547" />
    </linearGradient>
    <linearGradient
       inkscape:collect="always"
       xlink:href="#linearGradient5549"
       id="linearGradient5049"
       x1="406.18042"
       y1="112.82217"
       x2="447.89255"
       y2="58.400551"
       gradientUnits="userSpaceOnUse"
       spreadMethod="reflect" />
    <linearGradient
       inkscape:collect="always"
       xlink:href="#linearGradient1387"
       id="linearGradient1389"
       x1="322.19177"
       y1="118.75343"
       x2="428.49316"
       y2="77.109589"
       gradientUnits="userSpaceOnUse"
       spreadMethod="reflect" />
  </defs>
  <sodipodi:namedview
     inkscape:window-height="995"
     inkscape:window-width="1230"
     inkscape:pageshadow="2"
     inkscape:pageopacity="0.0"
     guidetolerance="10.0"
     gridtolerance="10.0"
     objecttolerance="10.0"
     borderopacity="1.0"
     bordercolor="#666666"
     pagecolor="#ffffff"
     id="base"
     inkscape:zoom="0.9425"
     inkscape:cx="449.86737"
     inkscape:cy="115"
     inkscape:window-x="50"
     inkscape:window-y="0"
     inkscape:current-layer="layer3"
     showgrid="false"
     inkscape:window-maximized="1"
     showguides="true"
     inkscape:guide-bbox="true"
     inkscape:snap-global="false" />
  <g
     inkscape:groupmode="layer"
     id="layer1"
     inkscape:label="bg"
     transform="translate(0,17)"
     sodipodi:insensitive="true"
     style="display:none">
    <rect
       id="rect135"
       width="800"
       height="230"
       x="6.086655e-06"
       y="-17"
       style="fill:#00222b;fill-opacity:1;stroke-width:2.26986098" />
  </g>
  <g
     inkscape:groupmode="layer"
     id="layer3"
     inkscape:label="letras SIG web"
     style="display:none"
     transform="translate(0,17)"
     sodipodi:insensitive="true">
    <g
       id="g5047"
       style="fill:url(#linearGradient5049);fill-opacity:1">
      <path
         inkscape:connector-curvature="0"
         inkscape:label="#path2161"
         id="F-5"
         d="M 1.1474098e-5,85.473616 33.670447,13.221633 75.980015,13.000003 69.113018,27.184448 41.866541,26.741177 36.993194,37.157878 64.018145,37.379508 58.25873,50.899049 30.569225,51.120681 14.620064,85.473616 Z"
         style="fill:url(#linearGradient5049);fill-opacity:1;fill-rule:evenodd;stroke:none;stroke-width:1.07324874px;stroke-linecap:butt;stroke-linejoin:miter;stroke-opacity:1" />
      <path
         inkscape:connector-curvature="0"
         inkscape:label="#path3142"
         sodipodi:nodetypes="ccccccccccccccccccccc"
         id="C-3"
         d="m 294.61445,65.741597 h 13.73399 l -6.42396,15.292598 c -1.78623,2.934939 -4.00944,4.558225 -8.41762,4.432636 h -29.0186 c -2.63201,-0.42894 -3.80738,-4.209889 -1.77816,-8.282316 L 288.412,20.750336 c 2.52059,-4.400396 4.31285,-6.031742 9.74671,-6.205696 l 26.66382,0.443271 c 2.78573,0.249842 5.28013,3.851694 3.98729,6.870587 l -6.06283,13.076272 h -13.51248 l 1.55061,-3.767733 c 0.49875,-1.180023 -0.60481,-2.943005 -2.43668,-3.102854 h -8.63912 c -0.66454,0.664901 -1.18343,0.601102 -1.99364,1.994693 l -17.49977,37.677408 c -0.79813,1.76701 -1.74192,3.825498 0.66454,3.989373 l 9.08216,-0.221632 c 1.90772,0.207526 2.65014,-1.042342 3.10123,-2.437949 z"
         style="fill:url(#linearGradient5049);fill-opacity:1;fill-rule:evenodd;stroke:none;stroke-width:1.07324874px;stroke-linecap:butt;stroke-linejoin:miter;stroke-opacity:1" />
      <path
         inkscape:connector-curvature="0"
         inkscape:label="#path3144"
         id="I1-5"
         d="m 495.97255,13.664904 h 13.95551 l -32.78438,71.808712 h -13.95551 z"
         style="fill:url(#linearGradient5049);fill-opacity:1;fill-rule:evenodd;stroke:none;stroke-width:1.07324874px;stroke-linecap:butt;stroke-linejoin:miter;stroke-opacity:1" />
      <path
         inkscape:connector-curvature="0"
         inkscape:label="#path3146"
         id="L-6"
         d="m 521.88993,14.551424 h 13.95551 l -27.02497,56.294491 26.58194,-0.221632 -6.20246,14.849333 -41.20198,-0.443264 z"
         style="fill:url(#linearGradient5049);fill-opacity:1;fill-rule:evenodd;stroke:none;stroke-width:1.07324874px;stroke-linecap:butt;stroke-linejoin:miter;stroke-opacity:1" />
      <path
         inkscape:connector-curvature="0"
         inkscape:label="#path3212"
         id="I2-2"
         d="M 629.65749,111.19096 H 643.613 l -32.78438,71.80873 h -13.95551 z"
         style="fill:url(#linearGradient5049);fill-opacity:1;fill-rule:evenodd;stroke:none;stroke-width:1.07324874px;stroke-linecap:butt;stroke-linejoin:miter;stroke-opacity:1" />
      <path
         inkscape:connector-curvature="0"
         inkscape:label="#path5154"
         sodipodi:nodetypes="ccccccccccccc"
         id="E1-9"
         d="M 49.733438,85.426693 83.776569,13.443274 h 40.711791 l -6.504,14.632396 -27.171136,0.0093 -4.156948,9.072814 26.921244,0.103767 -6.2684,14.189135 -27.293627,-0.04719 -8.870037,19.673353 27.090902,0.103767 -6.485209,14.292904 z"
         style="fill:url(#linearGradient5049);fill-opacity:1;fill-rule:evenodd;stroke:none;stroke-width:1.07324874px;stroke-linecap:butt;stroke-linejoin:miter;stroke-opacity:1" />
      <path
         inkscape:connector-curvature="0"
         inkscape:label="#path5182"
         id="A-1"
         d="m 355.11343,13.802037 -81.27736,130.433793 -44.69584,-0.13419 -9.92496,15.13006 45.03114,0.16773 -14.71978,23.44991 h 22.12997 l 13.848,-23.31571 h 28.97015 l -5.36484,23.4499 h 17.90516 l 40.7728,-169.181493 z m -23.30354,71.691619 -12.50678,57.869934 h -23.30354 z"
         style="fill:url(#linearGradient5049);fill-opacity:1;fill-rule:evenodd;stroke:none;stroke-width:1.07324874px;stroke-linecap:butt;stroke-linejoin:miter;stroke-opacity:1" />
      <path
         inkscape:connector-curvature="0"
         inkscape:label="#path5218"
         sodipodi:nodetypes="cccccccccccccccccccccc"
         id="G-2"
         d="m 441.2708,129.96195 13.15744,0.27987 5.92429,-11.71483 c 0.36129,-1.52034 -1.23548,-6.25919 -4.93017,-6.93993 l -28.66973,0.0454 c -3.22857,0.28089 -5.33824,2.24099 -6.32903,4.62089 l -26.68457,57.84677 c -2.27333,4.78565 1.32753,8.7317 3.25005,8.8995 l 27.71089,-0.34228 c 3.15645,-0.0635 6.0332,-1.66615 8.21063,-5.64776 l 19.15815,-40.90348 -21.03975,-0.3423 -5.98692,12.66468 6.84219,-0.17115 -8.58394,19.97758 -10.74526,0.21745 c -1.18665,0.56946 -2.79287,-1.23996 -1.8816,-2.90945 l 18.64498,-38.16518 c 0.51853,-0.99028 1.17693,-1.84063 2.39477,-1.71144 h 8.89485 c 1.79774,0.15605 1.35771,2.27118 1.19738,2.56716 z"
         style="fill:url(#linearGradient5049);fill-opacity:1;fill-rule:evenodd;stroke:none;stroke-width:1.07324874px;stroke-linecap:butt;stroke-linejoin:miter;stroke-opacity:1" />
      <path
         inkscape:connector-curvature="0"
         inkscape:label="#path2218"
         sodipodi:nodetypes="ccccccccccc"
         id="N1-7"
         d="m 492.44549,182.99969 34.00228,-72.02356 12.83229,-0.0842 -2.0436,34.7594 16.5521,-34.66188 14.10192,-0.14169 -33.38327,72.15193 h -14.34937 l 2.03027,-31.77199 -14.51764,31.74115 z"
         style="fill:url(#linearGradient5049);fill-opacity:1;fill-rule:evenodd;stroke:none;stroke-width:1.07324874px;stroke-linecap:butt;stroke-linejoin:miter;stroke-opacity:1" />
      <path
         inkscape:connector-curvature="0"
         inkscape:label="#path2220"
         sodipodi:nodetypes="ccccccccc"
         id="T-0"
         d="m 557.54498,182.99969 c 1.11469,-1.67292 26.67763,-57.96761 26.67763,-57.96761 l -12.74398,0.0441 7.60373,-14.61359 40.88538,0.0442 -6.87394,14.49857 h -14.67678 l -26.95297,57.95054 z"
         style="fill:url(#linearGradient5049);fill-opacity:1;fill-rule:evenodd;stroke:none;stroke-width:1.07324874px;stroke-linecap:butt;stroke-linejoin:miter;stroke-opacity:1" />
      <path
         inkscape:connector-curvature="0"
         inkscape:label="#path2222"
         sodipodi:nodetypes="ccccccccccccc"
         id="E3-9"
         d="m 441.62179,182.95276 34.04314,-71.98343 h 40.71181 l -6.50401,14.63241 -27.17114,0.01 -4.15695,9.07282 26.92125,0.10381 -6.2684,14.18913 -27.29363,-0.0472 -8.87004,19.67335 27.0909,0.10381 L 483.63951,183 Z"
         style="fill:url(#linearGradient5049);fill-opacity:1;fill-rule:evenodd;stroke:none;stroke-width:1.07324874px;stroke-linecap:butt;stroke-linejoin:miter;stroke-opacity:1" />
      <path
         inkscape:connector-curvature="0"
         inkscape:label="#path2224"
         sodipodi:nodetypes="ccccccccccccc"
         id="E2-3"
         d="m 540.96782,85.426692 34.04313,-71.983429 h 40.7118 l -6.504,14.632396 -27.17114,0.0094 -4.15695,9.072803 26.92125,0.103778 -6.2684,14.189136 -27.29364,-0.04719 -8.87003,19.673357 27.0909,0.103767 -6.48521,14.292904 z"
         style="fill:url(#linearGradient5049);fill-opacity:1;fill-rule:evenodd;stroke:none;stroke-width:1.07324874px;stroke-linecap:butt;stroke-linejoin:miter;stroke-opacity:1" />
      <path
         inkscape:connector-curvature="0"
         inkscape:label="#path2226"
         sodipodi:nodetypes="ccccccccccccccccccc"
         id="S2-6"
         d="m 725.69007,182.99969 6.64547,-13.85739 27.2639,0.11621 7.73564,-17.06564 c 0.7836,-2.24288 0.58862,-4.48576 -3.10122,-4.21101 l -14.17703,-0.88653 c -3.34897,-0.68799 -4.48106,-5.07272 -3.76577,-7.97874 L 756.4808,116.9534 c 1.74676,-3.37496 4.10931,-5.51768 8.19609,-5.31916 l 35.3231,0.1407 -6.3045,14.04374 -24.80979,-0.44326 c -1.59965,0.2453 -4.06141,4.18732 -5.16843,7.02033 -0.27168,2.66044 0.68821,2.48673 2.51023,2.80592 l 16.61371,0.59044 c 3.35973,0.93352 3.58122,6.05797 2.65819,7.53549 l -15.68906,34.25083 c -1.81154,2.97376 -4.18641,5.38472 -8.23467,5.42126 z"
         style="fill:url(#linearGradient5049);fill-opacity:1;fill-rule:evenodd;stroke:none;stroke-width:1.07324874px;stroke-linecap:butt;stroke-linejoin:miter;stroke-opacity:1" />
      <path
         inkscape:connector-curvature="0"
         inkscape:label="#path3198"
         sodipodi:nodetypes="ccccccccccccccccccc"
         id="S1-0"
         d="m 592.63737,85.473616 6.64548,-13.857384 27.2639,0.11621 7.73564,-17.065647 c 0.7836,-2.242871 0.58862,-4.485752 -3.10122,-4.211004 L 617.00413,49.56926 c -3.34897,-0.687993 -4.48106,-5.072715 -3.76576,-7.978737 L 623.4281,19.42733 c 1.74676,-3.374961 4.10931,-5.517683 8.1961,-5.319155 l 35.32309,0.140697 -6.30449,14.043737 -24.8098,-0.44326 c -1.59965,0.245301 -4.06141,4.187322 -5.16842,7.020333 -0.27169,2.660442 0.68821,2.486723 2.51023,2.805916 l 16.6137,0.590441 c 3.35973,0.933519 3.58123,6.057968 2.65819,7.535488 l -15.68906,34.250831 c -1.81153,2.973761 -4.18641,5.384726 -8.23467,5.421258 z"
         style="fill:url(#linearGradient5049);fill-opacity:1;fill-rule:evenodd;stroke:none;stroke-width:1.07324874px;stroke-linecap:butt;stroke-linejoin:miter;stroke-opacity:1" />
      <path
         inkscape:connector-curvature="0"
         inkscape:label="#path7999"
         sodipodi:nodetypes="ccccccccccc"
         id="N2-6"
         d="m 621.54299,182.99969 34.00227,-72.02356 12.8323,-0.0842 -2.0436,34.7594 16.5521,-34.66188 14.10192,-0.14169 -33.38327,72.15193 h -14.34937 l 2.03027,-31.77199 -14.51765,31.74115 z"
         style="fill:url(#linearGradient5049);fill-opacity:1;fill-rule:evenodd;stroke:none;stroke-width:1.07324874px;stroke-linecap:butt;stroke-linejoin:miter;stroke-opacity:1" />
      <path
         inkscape:connector-curvature="0"
         inkscape:label="#path8990"
         id="R1-2"
         d="M 136.50937,13.144586 102.84498,85.40652 h 14.38448 l 12.67444,-26.905325 9.05317,-0.100644 c 3.74966,0.208039 1.18035,5.333959 1.1065,6.340532 l -9.7573,20.732533 13.94859,-0.100644 8.6508,-19.524812 1.97829,-4.294117 2.01182,-4.294117 c 0.29535,-1.403671 1.8236,-3.403044 -0.46943,-6.877296 3.12539,-0.09403 5.09444,-2.653099 7.3096,-6.642462 l 9.0867,-21.504132 c 0.96133,-2.54435 1.17932,-8.708286 -2.64889,-8.856616 z m 7.51077,14.794574 h 9.55613 c 2.67868,-0.09437 2.89788,0.755872 2.01182,3.119944 l -6.639,14.022976 -12.7415,-0.234835 z"
         style="fill:url(#linearGradient5049);fill-opacity:1;fill-rule:evenodd;stroke:none;stroke-width:1.07324874px;stroke-linecap:butt;stroke-linejoin:miter;stroke-opacity:1" />
      <path
         inkscape:connector-curvature="0"
         inkscape:label="#path8990"
         id="R2-6"
         d="M 187.60068,13.144586 153.93629,85.40652 h 14.38449 l 12.67444,-26.90533 9.05317,-0.100643 c 3.74966,0.208039 1.18034,5.333959 1.10649,6.340532 l -9.7573,20.732537 13.94859,-0.100644 8.65081,-19.524816 1.97828,-4.294117 2.01182,-4.294117 c 0.29535,-1.403671 1.8236,-3.403044 -0.46943,-6.877296 3.12539,-0.09403 5.09445,-2.653099 7.3096,-6.642458 l 9.0867,-21.504132 c 0.96133,-2.54435 1.17932,-8.708286 -2.64889,-8.856616 z m 7.51078,14.794574 h 9.55612 c 2.67868,-0.09437 2.89788,0.755872 2.01182,3.119944 l -6.639,14.022976 -12.7415,-0.234835 z"
         style="fill:url(#linearGradient5049);fill-opacity:1;fill-rule:evenodd;stroke:none;stroke-width:1.07324874px;stroke-linecap:butt;stroke-linejoin:miter;stroke-opacity:1" />
      <path
         inkscape:connector-curvature="0"
         inkscape:label="#path8990"
         id="R3-1"
         d="M 394.21379,13.144586 360.54941,85.40652 h 14.38448 l 12.67444,-26.905323 9.05317,-0.100644 c 3.74966,0.20804 1.18034,5.333957 1.1065,6.34053 l -9.75731,20.732533 13.94859,-0.100644 8.65081,-19.524812 1.97828,-4.294117 2.01182,-4.294114 c 0.29536,-1.403672 1.82361,-3.403045 -0.46942,-6.877297 3.12538,-0.09403 5.09444,-2.653098 7.30959,-6.642464 l 9.0867,-21.504132 c 0.96133,-2.54435 1.17932,-8.708286 -2.64889,-8.856616 z m 7.51078,14.794574 h 9.55612 c 2.67868,-0.09437 2.89789,0.755872 2.01182,3.119944 l -6.63899,14.022976 -12.7415,-0.234835 z"
         style="fill:url(#linearGradient5049);fill-opacity:1;fill-rule:evenodd;stroke:none;stroke-width:1.07324874px;stroke-linecap:butt;stroke-linejoin:miter;stroke-opacity:1" />
      <path
         inkscape:connector-curvature="0"
         inkscape:label="#path8990"
         id="R4-8"
         d="M 445.44483,13.144586 411.78045,85.40652 h 14.38448 l 12.67444,-26.905325 9.05317,-0.100644 c 3.74966,0.208039 1.18034,5.333959 1.1065,6.340532 l -9.75731,20.732533 13.94859,-0.100644 8.65081,-19.524812 1.97829,-4.294117 2.01181,-4.294117 c 0.29536,-1.403671 1.82361,-3.403044 -0.46942,-6.877296 3.12538,-0.09403 5.09444,-2.653099 7.3096,-6.642462 l 9.0867,-21.504132 c 0.96132,-2.54435 1.17932,-8.708286 -2.64889,-8.856616 z m 7.51078,14.794574 h 9.55613 c 2.67867,-0.09437 2.89788,0.755872 2.01181,3.119944 l -6.63899,14.022976 -12.7415,-0.234835 z"
         style="fill:url(#linearGradient5049);fill-opacity:1;fill-rule:evenodd;stroke:none;stroke-width:1.07324874px;stroke-linecap:butt;stroke-linejoin:miter;stroke-opacity:1" />
      <path
         inkscape:connector-curvature="0"
         inkscape:label="#path8990"
         id="R5-7"
         d="m 371.69465,110.09191 -33.66438,72.26193 h 14.38448 l 12.67444,-26.90533 9.05317,-0.10059 c 3.74966,0.20804 1.18034,5.33396 1.1065,6.34054 l -9.75731,20.73253 13.94859,-0.10059 8.65081,-19.52481 1.97828,-4.29412 2.01182,-4.29412 c 0.29536,-1.40367 1.82361,-3.40304 -0.46942,-6.87729 3.12538,-0.094 5.09444,-2.6531 7.30959,-6.64246 l 9.0867,-21.50414 c 0.96133,-2.54435 1.17933,-8.70828 -2.64889,-8.85661 z m 7.51078,14.79457 h 9.55612 c 2.67868,-0.0944 2.89789,0.75587 2.01182,3.11994 l -6.63899,14.02298 -12.7415,-0.23484 z"
         style="fill:url(#linearGradient5049);fill-opacity:1;fill-rule:evenodd;stroke:none;stroke-width:1.07324874px;stroke-linecap:butt;stroke-linejoin:miter;stroke-opacity:1" />
      <path
         inkscape:connector-curvature="0"
         inkscape:label="#path9009"
         id="O1-9"
         d="m 243.71287,14.318758 c -3.74966,0.685052 -5.74381,2.987074 -7.74549,6.441176 l -26.35479,56.494474 c -1.07536,3.098817 0.16952,7.530861 3.75539,8.152112 l 28.56778,0.0671 c 4.18867,-0.321705 6.50253,-3.405965 8.21492,-6.642462 l 26.35478,-57.635099 c 1.15121,-2.435934 -0.59441,-6.773196 -3.08478,-6.877297 z m 2.44771,14.190715 h 11.2997 c 1.46066,-0.127611 2.03307,2.370921 0.87178,3.992186 l -17.80457,38.915434 -11.86971,-0.134191 c -1.53449,-0.529239 -1.46672,-1.491895 -0.6706,-3.18704 z"
         style="fill:url(#linearGradient5049);fill-opacity:1;fill-rule:evenodd;stroke:none;stroke-width:1.07324874px;stroke-linecap:butt;stroke-linejoin:miter;stroke-opacity:1" />
      <path
         inkscape:connector-curvature="0"
         inkscape:label="#path9014"
         id="O2-2"
         d="m 710.28346,111.84483 c -3.74966,0.68505 -5.74381,2.98707 -7.74549,6.44117 l -26.35479,56.49448 c -1.07536,3.09881 0.16952,7.53086 3.75539,8.15211 l 28.56778,0.0671 c 4.18867,-0.32171 6.50252,-3.40597 8.21492,-6.64247 l 26.35478,-57.6351 c 1.15121,-2.43593 -0.59441,-6.77319 -3.08478,-6.87729 z m 2.44771,14.19071 h 11.29969 c 1.46067,-0.12761 2.03307,2.37092 0.87179,3.99219 l -17.80457,38.91543 -11.86971,-0.13419 c -1.5345,-0.52924 -1.46672,-1.49189 -0.67061,-3.18704 z"
         style="fill:url(#linearGradient5049);fill-opacity:1;fill-rule:evenodd;stroke:none;stroke-width:1.07324874px;stroke-linecap:butt;stroke-linejoin:miter;stroke-opacity:1" />
      <path
         inkscape:connector-curvature="0"
         inkscape:label="#path3212"
         id="I2-2-2"
         d="M 80.32555,115.67526 H 93.23439 L 62.90884,183 H 50 Z"
         style="fill:url(#linearGradient5049);fill-opacity:1;fill-rule:evenodd;stroke:none;stroke-width:0.99947059px;stroke-linecap:butt;stroke-linejoin:miter;stroke-opacity:1" />
      <path
         inkscape:connector-curvature="0"
         inkscape:label="#path5218"
         sodipodi:nodetypes="cccccccccccccccccccccc"
         id="G-2-7"
         d="m 124.64067,133.27415 12.17063,0.26239 5.47996,-10.98332 c 0.3342,-1.42541 -1.14282,-5.86835 -4.56041,-6.50657 l -26.51949,0.0426 c -2.98643,0.26335 -4.93788,2.10105 -5.85436,4.33234 l -24.68322,54.23462 c -2.10283,4.48682 1.22796,8.18646 3.00629,8.34379 l 25.63257,-0.32091 c 2.91973,-0.0595 5.58072,-1.56211 7.59484,-5.2951 l 17.72129,-38.34932 -19.46177,-0.32093 -5.5379,11.87386 6.32903,-0.16046 -7.94015,18.73011 -9.93937,0.20386 c -1.09765,0.53391 -2.58341,-1.16253 -1.74048,-2.72777 l 17.24661,-35.78201 c 0.47964,-0.92845 1.08866,-1.72569 2.21516,-1.60457 h 8.22774 c 1.66291,0.1463 1.25588,2.12936 1.10758,2.40686 z"
         style="fill:url(#linearGradient5049);fill-opacity:1;fill-rule:evenodd;stroke:none;stroke-width:0.99947059px;stroke-linecap:butt;stroke-linejoin:miter;stroke-opacity:1" />
      <path
         inkscape:connector-curvature="0"
         inkscape:label="#path3198"
         sodipodi:nodetypes="ccccccccccccccccccc"
         id="S1-0-3"
         d="m 0,183 6.14706,-12.99208 25.21911,0.10895 7.15547,-16.00001 c 0.72483,-2.10282 0.54447,-4.20564 -2.86863,-3.94805 l -13.11376,-0.83118 c -3.0978,-0.64503 -4.14498,-4.75595 -3.48333,-7.48051 l 9.4255,-20.77925 c 1.61576,-3.16421 3.80111,-5.17313 7.58139,-4.987 l 32.67387,0.13191 -5.83166,13.16679 -22.94907,-0.41558 c -1.47967,0.22998 -3.7568,3.92585 -4.78079,6.58196 -0.25131,2.49431 0.6366,2.33144 2.32197,2.6307 l 15.36767,0.55357 c 3.10775,0.87523 3.31264,5.67969 2.45883,7.06495 l -14.51238,32.11209 c -1.67567,2.78807 -3.87243,5.04849 -7.61707,5.08274 z"
         style="fill:url(#linearGradient5049);fill-opacity:1;fill-rule:evenodd;stroke:none;stroke-width:0.99947059px;stroke-linecap:butt;stroke-linejoin:miter;stroke-opacity:1" />
    </g>
  </g>
  <g
     inkscape:groupmode="layer"
     id="layer2"
     inkscape:label="letras logo"
     style="display:inline">
    <g
       transform="translate(0,16.999997)"
       id="g5047-7"
       style="display:inline;fill:url(#linearGradient1389);fill-opacity:1">
      <path
         inkscape:connector-curvature="0"
         inkscape:label="#path2161"
         id="F-5-5"
         d="M 1.1474098e-5,85.473616 33.670447,13.221633 75.980015,13.000003 69.113018,27.184448 41.866541,26.741177 36.993194,37.157878 64.018145,37.379508 58.25873,50.899049 30.569225,51.120681 14.620064,85.473616 Z"
         style="fill:url(#linearGradient1389);fill-opacity:1;fill-rule:evenodd;stroke:none;stroke-width:1.07324874px;stroke-linecap:butt;stroke-linejoin:miter;stroke-opacity:1" />
      <path
         inkscape:connector-curvature="0"
         inkscape:label="#path3142"
         sodipodi:nodetypes="ccccccccccccccccccccc"
         id="C-3-3"
         d="m 294.61445,65.741597 h 13.73399 l -6.42396,15.292598 c -1.78623,2.934939 -4.00944,4.558225 -8.41762,4.432636 h -29.0186 c -2.63201,-0.42894 -3.80738,-4.209889 -1.77816,-8.282316 L 288.412,20.750336 c 2.52059,-4.400396 4.31285,-6.031742 9.74671,-6.205696 l 26.66382,0.443271 c 2.78573,0.249842 5.28013,3.851694 3.98729,6.870587 l -6.06283,13.076272 h -13.51248 l 1.55061,-3.767733 c 0.49875,-1.180023 -0.60481,-2.943005 -2.43668,-3.102854 h -8.63912 c -0.66454,0.664901 -1.18343,0.601102 -1.99364,1.994693 l -17.49977,37.677408 c -0.79813,1.76701 -1.74192,3.825498 0.66454,3.989373 l 9.08216,-0.221632 c 1.90772,0.207526 2.65014,-1.042342 3.10123,-2.437949 z"
         style="fill:url(#linearGradient1389);fill-opacity:1;fill-rule:evenodd;stroke:none;stroke-width:1.07324874px;stroke-linecap:butt;stroke-linejoin:miter;stroke-opacity:1" />
      <path
         inkscape:connector-curvature="0"
         inkscape:label="#path3144"
         id="I1-5-5"
         d="m 495.97255,13.664904 h 13.95551 l -32.78438,71.808712 h -13.95551 z"
         style="fill:url(#linearGradient1389);fill-opacity:1;fill-rule:evenodd;stroke:none;stroke-width:1.07324874px;stroke-linecap:butt;stroke-linejoin:miter;stroke-opacity:1" />
      <path
         inkscape:connector-curvature="0"
         inkscape:label="#path3146"
         id="L-6-6"
         d="m 521.88993,14.551424 h 13.95551 l -27.02497,56.294491 26.58194,-0.221632 -6.20246,14.849333 -41.20198,-0.443264 z"
         style="fill:url(#linearGradient1389);fill-opacity:1;fill-rule:evenodd;stroke:none;stroke-width:1.07324874px;stroke-linecap:butt;stroke-linejoin:miter;stroke-opacity:1" />
      <path
         inkscape:connector-curvature="0"
         inkscape:label="#path3212"
         id="I2-2-29"
         d="M 629.65749,111.19096 H 643.613 l -32.78438,71.80873 h -13.95551 z"
         style="fill:url(#linearGradient1389);fill-opacity:1;fill-rule:evenodd;stroke:none;stroke-width:1.07324874px;stroke-linecap:butt;stroke-linejoin:miter;stroke-opacity:1" />
      <path
         inkscape:connector-curvature="0"
         inkscape:label="#path5154"
         sodipodi:nodetypes="ccccccccccccc"
         id="E1-9-1"
         d="M 49.733438,85.426693 83.776569,13.443274 h 40.711791 l -6.504,14.632396 -27.171136,0.0093 -4.156948,9.072814 26.921244,0.103767 -6.2684,14.189135 -27.293627,-0.04719 -8.870037,19.673353 27.090902,0.103767 -6.485209,14.292904 z"
         style="fill:url(#linearGradient1389);fill-opacity:1;fill-rule:evenodd;stroke:none;stroke-width:1.07324874px;stroke-linecap:butt;stroke-linejoin:miter;stroke-opacity:1" />
      <path
         inkscape:connector-curvature="0"
         inkscape:label="#path5182"
         id="A-1-2"
         d="m 355.11343,13.802037 -81.27736,130.433793 -44.69584,-0.13419 -9.92496,15.13006 45.03114,0.16773 -14.71978,23.44991 h 22.12997 l 13.848,-23.31571 h 28.97015 l -5.36484,23.4499 h 17.90516 l 40.7728,-169.181493 z m -23.30354,71.691619 -12.50678,57.869934 h -23.30354 z"
         style="fill:url(#linearGradient1389);fill-opacity:1;fill-rule:evenodd;stroke:none;stroke-width:1.07324874px;stroke-linecap:butt;stroke-linejoin:miter;stroke-opacity:1" />
      <path
         inkscape:connector-curvature="0"
         inkscape:label="#path5218"
         sodipodi:nodetypes="cccccccccccccccccccccc"
         id="G-2-70"
         d="m 441.2708,129.96195 13.15744,0.27987 5.92429,-11.71483 c 0.36129,-1.52034 -1.23548,-6.25919 -4.93017,-6.93993 l -28.66973,0.0454 c -3.22857,0.28089 -5.33824,2.24099 -6.32903,4.62089 l -26.68457,57.84677 c -2.27333,4.78565 1.32753,8.7317 3.25005,8.8995 l 27.71089,-0.34228 c 3.15645,-0.0635 6.0332,-1.66615 8.21063,-5.64776 l 19.15815,-40.90348 -21.03975,-0.3423 -5.98692,12.66468 6.84219,-0.17115 -8.58394,19.97758 -10.74526,0.21745 c -1.18665,0.56946 -2.79287,-1.23996 -1.8816,-2.90945 l 18.64498,-38.16518 c 0.51853,-0.99028 1.17693,-1.84063 2.39477,-1.71144 h 8.89485 c 1.79774,0.15605 1.35771,2.27118 1.19738,2.56716 z"
         style="fill:url(#linearGradient1389);fill-opacity:1;fill-rule:evenodd;stroke:none;stroke-width:1.07324874px;stroke-linecap:butt;stroke-linejoin:miter;stroke-opacity:1" />
      <path
         inkscape:connector-curvature="0"
         inkscape:label="#path2218"
         sodipodi:nodetypes="ccccccccccc"
         id="N1-7-9"
         d="m 492.44549,182.99969 34.00228,-72.02356 12.83229,-0.0842 -2.0436,34.7594 16.5521,-34.66188 14.10192,-0.14169 -33.38327,72.15193 h -14.34937 l 2.03027,-31.77199 -14.51764,31.74115 z"
         style="fill:url(#linearGradient1389);fill-opacity:1;fill-rule:evenodd;stroke:none;stroke-width:1.07324874px;stroke-linecap:butt;stroke-linejoin:miter;stroke-opacity:1" />
      <path
         inkscape:connector-curvature="0"
         inkscape:label="#path2220"
         sodipodi:nodetypes="ccccccccc"
         id="T-0-3"
         d="m 557.54498,182.99969 c 1.11469,-1.67292 26.67763,-57.96761 26.67763,-57.96761 l -12.74398,0.0441 7.60373,-14.61359 40.88538,0.0442 -6.87394,14.49857 h -14.67678 l -26.95297,57.95054 z"
         style="fill:url(#linearGradient1389);fill-opacity:1;fill-rule:evenodd;stroke:none;stroke-width:1.07324874px;stroke-linecap:butt;stroke-linejoin:miter;stroke-opacity:1" />
      <path
         inkscape:connector-curvature="0"
         inkscape:label="#path2222"
         sodipodi:nodetypes="ccccccccccccc"
         id="E3-9-6"
         d="m 441.62179,182.95276 34.04314,-71.98343 h 40.71181 l -6.50401,14.63241 -27.17114,0.01 -4.15695,9.07282 26.92125,0.10381 -6.2684,14.18913 -27.29363,-0.0472 -8.87004,19.67335 27.0909,0.10381 L 483.63951,183 Z"
         style="fill:url(#linearGradient1389);fill-opacity:1;fill-rule:evenodd;stroke:none;stroke-width:1.07324874px;stroke-linecap:butt;stroke-linejoin:miter;stroke-opacity:1" />
      <path
         inkscape:connector-curvature="0"
         inkscape:label="#path2224"
         sodipodi:nodetypes="ccccccccccccc"
         id="E2-3-0"
         d="m 540.96782,85.426692 34.04313,-71.983429 h 40.7118 l -6.504,14.632396 -27.17114,0.0094 -4.15695,9.072803 26.92125,0.103778 -6.2684,14.189136 -27.29364,-0.04719 -8.87003,19.673357 27.0909,0.103767 -6.48521,14.292904 z"
         style="fill:url(#linearGradient1389);fill-opacity:1;fill-rule:evenodd;stroke:none;stroke-width:1.07324874px;stroke-linecap:butt;stroke-linejoin:miter;stroke-opacity:1" />
      <path
         inkscape:connector-curvature="0"
         inkscape:label="#path2226"
         sodipodi:nodetypes="ccccccccccccccccccc"
         id="S2-6-6"
         d="m 725.69007,182.99969 6.64547,-13.85739 27.2639,0.11621 7.73564,-17.06564 c 0.7836,-2.24288 0.58862,-4.48576 -3.10122,-4.21101 l -14.17703,-0.88653 c -3.34897,-0.68799 -4.48106,-5.07272 -3.76577,-7.97874 L 756.4808,116.9534 c 1.74676,-3.37496 4.10931,-5.51768 8.19609,-5.31916 l 35.3231,0.1407 -6.3045,14.04374 -24.80979,-0.44326 c -1.59965,0.2453 -4.06141,4.18732 -5.16843,7.02033 -0.27168,2.66044 0.68821,2.48673 2.51023,2.80592 l 16.61371,0.59044 c 3.35973,0.93352 3.58122,6.05797 2.65819,7.53549 l -15.68906,34.25083 c -1.81154,2.97376 -4.18641,5.38472 -8.23467,5.42126 z"
         style="fill:url(#linearGradient1389);fill-opacity:1;fill-rule:evenodd;stroke:none;stroke-width:1.07324874px;stroke-linecap:butt;stroke-linejoin:miter;stroke-opacity:1" />
      <path
         inkscape:connector-curvature="0"
         inkscape:label="#path3198"
         sodipodi:nodetypes="ccccccccccccccccccc"
         id="S1-0-2"
         d="m 592.63737,85.473616 6.64548,-13.857384 27.2639,0.11621 7.73564,-17.065647 c 0.7836,-2.242871 0.58862,-4.485752 -3.10122,-4.211004 L 617.00413,49.56926 c -3.34897,-0.687993 -4.48106,-5.072715 -3.76576,-7.978737 L 623.4281,19.42733 c 1.74676,-3.374961 4.10931,-5.517683 8.1961,-5.319155 l 35.32309,0.140697 -6.30449,14.043737 -24.8098,-0.44326 c -1.59965,0.245301 -4.06141,4.187322 -5.16842,7.020333 -0.27169,2.660442 0.68821,2.486723 2.51023,2.805916 l 16.6137,0.590441 c 3.35973,0.933519 3.58123,6.057968 2.65819,7.535488 l -15.68906,34.250831 c -1.81153,2.973761 -4.18641,5.384726 -8.23467,5.421258 z"
         style="fill:url(#linearGradient1389);fill-opacity:1;fill-rule:evenodd;stroke:none;stroke-width:1.07324874px;stroke-linecap:butt;stroke-linejoin:miter;stroke-opacity:1" />
      <path
         inkscape:connector-curvature="0"
         inkscape:label="#path7999"
         sodipodi:nodetypes="ccccccccccc"
         id="N2-6-6"
         d="m 621.54299,182.99969 34.00227,-72.02356 12.8323,-0.0842 -2.0436,34.7594 16.5521,-34.66188 14.10192,-0.14169 -33.38327,72.15193 h -14.34937 l 2.03027,-31.77199 -14.51765,31.74115 z"
         style="fill:url(#linearGradient1389);fill-opacity:1;fill-rule:evenodd;stroke:none;stroke-width:1.07324874px;stroke-linecap:butt;stroke-linejoin:miter;stroke-opacity:1" />
      <path
         inkscape:connector-curvature="0"
         inkscape:label="#path8990"
         id="R1-2-1"
         d="M 136.50937,13.144586 102.84498,85.40652 h 14.38448 l 12.67444,-26.905325 9.05317,-0.100644 c 3.74966,0.208039 1.18035,5.333959 1.1065,6.340532 l -9.7573,20.732533 13.94859,-0.100644 8.6508,-19.524812 1.97829,-4.294117 2.01182,-4.294117 c 0.29535,-1.403671 1.8236,-3.403044 -0.46943,-6.877296 3.12539,-0.09403 5.09444,-2.653099 7.3096,-6.642462 l 9.0867,-21.504132 c 0.96133,-2.54435 1.17932,-8.708286 -2.64889,-8.856616 z m 7.51077,14.794574 h 9.55613 c 2.67868,-0.09437 2.89788,0.755872 2.01182,3.119944 l -6.639,14.022976 -12.7415,-0.234835 z"
         style="fill:url(#linearGradient1389);fill-opacity:1;fill-rule:evenodd;stroke:none;stroke-width:1.07324874px;stroke-linecap:butt;stroke-linejoin:miter;stroke-opacity:1" />
      <path
         inkscape:connector-curvature="0"
         inkscape:label="#path8990"
         id="R2-6-8"
         d="M 187.60068,13.144586 153.93629,85.40652 h 14.38449 l 12.67444,-26.90533 9.05317,-0.100643 c 3.74966,0.208039 1.18034,5.333959 1.10649,6.340532 l -9.7573,20.732537 13.94859,-0.100644 8.65081,-19.524816 1.97828,-4.294117 2.01182,-4.294117 c 0.29535,-1.403671 1.8236,-3.403044 -0.46943,-6.877296 3.12539,-0.09403 5.09445,-2.653099 7.3096,-6.642458 l 9.0867,-21.504132 c 0.96133,-2.54435 1.17932,-8.708286 -2.64889,-8.856616 z m 7.51078,14.794574 h 9.55612 c 2.67868,-0.09437 2.89788,0.755872 2.01182,3.119944 l -6.639,14.022976 -12.7415,-0.234835 z"
         style="fill:url(#linearGradient1389);fill-opacity:1;fill-rule:evenodd;stroke:none;stroke-width:1.07324874px;stroke-linecap:butt;stroke-linejoin:miter;stroke-opacity:1" />
      <path
         inkscape:connector-curvature="0"
         inkscape:label="#path8990"
         id="R3-1-7"
         d="M 394.21379,13.144586 360.54941,85.40652 h 14.38448 l 12.67444,-26.905323 9.05317,-0.100644 c 3.74966,0.20804 1.18034,5.333957 1.1065,6.34053 l -9.75731,20.732533 13.94859,-0.100644 8.65081,-19.524812 1.97828,-4.294117 2.01182,-4.294114 c 0.29536,-1.403672 1.82361,-3.403045 -0.46942,-6.877297 3.12538,-0.09403 5.09444,-2.653098 7.30959,-6.642464 l 9.0867,-21.504132 c 0.96133,-2.54435 1.17932,-8.708286 -2.64889,-8.856616 z m 7.51078,14.794574 h 9.55612 c 2.67868,-0.09437 2.89789,0.755872 2.01182,3.119944 l -6.63899,14.022976 -12.7415,-0.234835 z"
         style="fill:url(#linearGradient1389);fill-opacity:1;fill-rule:evenodd;stroke:none;stroke-width:1.07324874px;stroke-linecap:butt;stroke-linejoin:miter;stroke-opacity:1" />
      <path
         inkscape:connector-curvature="0"
         inkscape:label="#path8990"
         id="R4-8-9"
         d="M 445.44483,13.144586 411.78045,85.40652 h 14.38448 l 12.67444,-26.905325 9.05317,-0.100644 c 3.74966,0.208039 1.18034,5.333959 1.1065,6.340532 l -9.75731,20.732533 13.94859,-0.100644 8.65081,-19.524812 1.97829,-4.294117 2.01181,-4.294117 c 0.29536,-1.403671 1.82361,-3.403044 -0.46942,-6.877296 3.12538,-0.09403 5.09444,-2.653099 7.3096,-6.642462 l 9.0867,-21.504132 c 0.96132,-2.54435 1.17932,-8.708286 -2.64889,-8.856616 z m 7.51078,14.794574 h 9.55613 c 2.67867,-0.09437 2.89788,0.755872 2.01181,3.119944 l -6.63899,14.022976 -12.7415,-0.234835 z"
         style="fill:url(#linearGradient1389);fill-opacity:1;fill-rule:evenodd;stroke:none;stroke-width:1.07324874px;stroke-linecap:butt;stroke-linejoin:miter;stroke-opacity:1" />
      <path
         inkscape:connector-curvature="0"
         inkscape:label="#path8990"
         id="R5-7-2"
         d="m 371.69465,110.09191 -33.66438,72.26193 h 14.38448 l 12.67444,-26.90533 9.05317,-0.10059 c 3.74966,0.20804 1.18034,5.33396 1.1065,6.34054 l -9.75731,20.73253 13.94859,-0.10059 8.65081,-19.52481 1.97828,-4.29412 2.01182,-4.29412 c 0.29536,-1.40367 1.82361,-3.40304 -0.46942,-6.87729 3.12538,-0.094 5.09444,-2.6531 7.30959,-6.64246 l 9.0867,-21.50414 c 0.96133,-2.54435 1.17933,-8.70828 -2.64889,-8.85661 z m 7.51078,14.79457 h 9.55612 c 2.67868,-0.0944 2.89789,0.75587 2.01182,3.11994 l -6.63899,14.02298 -12.7415,-0.23484 z"
         style="fill:url(#linearGradient1389);fill-opacity:1;fill-rule:evenodd;stroke:none;stroke-width:1.07324874px;stroke-linecap:butt;stroke-linejoin:miter;stroke-opacity:1" />
      <path
         inkscape:connector-curvature="0"
         inkscape:label="#path9009"
         id="O1-9-0"
         d="m 243.71287,14.318758 c -3.74966,0.685052 -5.74381,2.987074 -7.74549,6.441176 l -26.35479,56.494474 c -1.07536,3.098817 0.16952,7.530861 3.75539,8.152112 l 28.56778,0.0671 c 4.18867,-0.321705 6.50253,-3.405965 8.21492,-6.642462 l 26.35478,-57.635099 c 1.15121,-2.435934 -0.59441,-6.773196 -3.08478,-6.877297 z m 2.44771,14.190715 h 11.2997 c 1.46066,-0.127611 2.03307,2.370921 0.87178,3.992186 l -17.80457,38.915434 -11.86971,-0.134191 c -1.53449,-0.529239 -1.46672,-1.491895 -0.6706,-3.18704 z"
         style="fill:url(#linearGradient1389);fill-opacity:1;fill-rule:evenodd;stroke:none;stroke-width:1.07324874px;stroke-linecap:butt;stroke-linejoin:miter;stroke-opacity:1" />
      <path
         inkscape:connector-curvature="0"
         inkscape:label="#path9014"
         id="O2-2-2"
         d="m 710.28346,111.84483 c -3.74966,0.68505 -5.74381,2.98707 -7.74549,6.44117 l -26.35479,56.49448 c -1.07536,3.09881 0.16952,7.53086 3.75539,8.15211 l 28.56778,0.0671 c 4.18867,-0.32171 6.50252,-3.40597 8.21492,-6.64247 l 26.35478,-57.6351 c 1.15121,-2.43593 -0.59441,-6.77319 -3.08478,-6.87729 z m 2.44771,14.19071 h 11.29969 c 1.46067,-0.12761 2.03307,2.37092 0.87179,3.99219 l -17.80457,38.91543 -11.86971,-0.13419 c -1.5345,-0.52924 -1.46672,-1.49189 -0.67061,-3.18704 z"
         style="fill:url(#linearGradient1389);fill-opacity:1;fill-rule:evenodd;stroke:none;stroke-width:1.07324874px;stroke-linecap:butt;stroke-linejoin:miter;stroke-opacity:1" />
      <path
         inkscape:connector-curvature="0"
         inkscape:label="#path3212"
         id="I2-2-2-3"
         d="M 80.32555,115.67526 H 93.23439 L 62.90884,183 H 50 Z"
         style="fill:url(#linearGradient1389);fill-opacity:1;fill-rule:evenodd;stroke:none;stroke-width:0.99947059px;stroke-linecap:butt;stroke-linejoin:miter;stroke-opacity:1" />
      <path
         inkscape:connector-curvature="0"
         inkscape:label="#path5218"
         sodipodi:nodetypes="cccccccccccccccccccccc"
         id="G-2-7-7"
         d="m 124.64067,133.27415 12.17063,0.26239 5.47996,-10.98332 c 0.3342,-1.42541 -1.14282,-5.86835 -4.56041,-6.50657 l -26.51949,0.0426 c -2.98643,0.26335 -4.93788,2.10105 -5.85436,4.33234 l -24.68322,54.23462 c -2.10283,4.48682 1.22796,8.18646 3.00629,8.34379 l 25.63257,-0.32091 c 2.91973,-0.0595 5.58072,-1.56211 7.59484,-5.2951 l 17.72129,-38.34932 -19.46177,-0.32093 -5.5379,11.87386 6.32903,-0.16046 -7.94015,18.73011 -9.93937,0.20386 c -1.09765,0.53391 -2.58341,-1.16253 -1.74048,-2.72777 l 17.24661,-35.78201 c 0.47964,-0.92845 1.08866,-1.72569 2.21516,-1.60457 h 8.22774 c 1.66291,0.1463 1.25588,2.12936 1.10758,2.40686 z"
         style="fill:url(#linearGradient1389);fill-opacity:1;fill-rule:evenodd;stroke:none;stroke-width:0.99947059px;stroke-linecap:butt;stroke-linejoin:miter;stroke-opacity:1" />
      <path
         inkscape:connector-curvature="0"
         inkscape:label="#path3198"
         sodipodi:nodetypes="ccccccccccccccccccc"
         id="S1-0-3-5"
         d="m 0,183 6.14706,-12.99208 25.21911,0.10895 7.15547,-16.00001 c 0.72483,-2.10282 0.54447,-4.20564 -2.86863,-3.94805 l -13.11376,-0.83118 c -3.0978,-0.64503 -4.14498,-4.75595 -3.48333,-7.48051 l 9.4255,-20.77925 c 1.61576,-3.16421 3.80111,-5.17313 7.58139,-4.987 l 32.67387,0.13191 -5.83166,13.16679 -22.94907,-0.41558 c -1.47967,0.22998 -3.7568,3.92585 -4.78079,6.58196 -0.25131,2.49431 0.6366,2.33144 2.32197,2.6307 l 15.36767,0.55357 c 3.10775,0.87523 3.31264,5.67969 2.45883,7.06495 l -14.51238,32.11209 c -1.67567,2.78807 -3.87243,5.04849 -7.61707,5.08274 z"
         style="fill:url(#linearGradient1389);fill-opacity:1;fill-rule:evenodd;stroke:none;stroke-width:0.99947059px;stroke-linecap:butt;stroke-linejoin:miter;stroke-opacity:1" />
    </g>
  </g>
</svg>
